[{"line":2,"elements":[{"line":4,"name":"","description":"","type":"background","keyword":"Background","steps":[{"name":"def userList = 'this:Articles.feature@GETListOfUsers'","result":{"duration":1205875,"status":"passed"},"match":{"location":"karate","arguments":[]},"keyword":"*","line":5},{"name":"def createAUser = 'this:createUser.feature@POSTCreateUser'","result":{"duration":569542,"status":"passed"},"match":{"location":"karate","arguments":[]},"keyword":"*","line":6}]},{"start_timestamp":"2023-06-22T07:55:23.750Z","line":10,"name":"Get the list of users","description":"","id":"get-the-list-of-users","type":"scenario","keyword":"Scenario","steps":[{"name":"call read(userList)","result":{"duration":339818041,"status":"passed"},"match":{"location":"karate","arguments":[]},"keyword":"When","line":11},{"name":"conduitApp\/feature\/Articles.feature","result":{"duration":0,"status":"passed"},"match":{"location":"karate","arguments":[]},"keyword":"","line":11},{"name":"url apiUrl","result":{"duration":590208,"status":"passed"},"match":{"location":"karate","arguments":[]},"keyword":"> *","line":5},{"name":"def userList = 'this:\/Articles.feature@GETListOfUsers'","result":{"duration":707917,"status":"passed"},"match":{"location":"karate","arguments":[]},"keyword":"> *","line":6},{"name":"path '\/api\/users'","result":{"duration":260167,"status":"passed"},"match":{"location":"karate","arguments":[]},"keyword":"> Given","line":11},{"name":"method GET","result":{"duration":320583583,"status":"passed"},"match":{"location":"karate","arguments":[]},"keyword":"> When","line":12,"doc_string":{"content_type":"","value":"15:55:23.912 request:\n1 > GET https:\/\/reqres.in\/api\/users\n1 > Host: reqres.in\n1 > Connection: Keep-Alive\n1 > User-Agent: Apache-HttpClient\/4.5.14 (Java\/11.0.18)\n1 > Accept-Encoding: gzip,deflate\n\n\n15:55:24.113 response time in milliseconds: 198\n1 < 200\n1 < Date: Thu, 22 Jun 2023 07:55:24 GMT\n1 < Content-Type: application\/json; charset=utf-8\n1 < Transfer-Encoding: chunked\n1 < Connection: keep-alive\n1 < X-Powered-By: Express\n1 < Access-Control-Allow-Origin: *\n1 < Etag: W\/\"3e4-2RLXvr5wTg9YQ6aH95CkYoFNuO8\"\n1 < Via: 1.1 vegur\n1 < Cache-Control: max-age=14400\n1 < CF-Cache-Status: HIT\n1 < Age: 5815\n1 < Report-To: {\"endpoints\":[{\"url\":\"https:\\\/\\\/a.nel.cloudflare.com\\\/report\\\/v3?s=8IbxekZV7kw1aDyOeNEGH%2Bufs0ofJSYwx947zVF9y8atgST7yFa098nIgqY%2FHIEX7QGDItHJck%2BUfizHkmItiqMdMP6ooznOi%2BHjOWIwW0ltae1jcx4mTOwdXg%3D%3D\"}],\"group\":\"cf-nel\",\"max_age\":604800}\n1 < NEL: {\"success_fraction\":0,\"report_to\":\"cf-nel\",\"max_age\":604800}\n1 < Vary: Accept-Encoding\n1 < Server: cloudflare\n1 < CF-RAY: 7db2edc45d1e4697-SIN\n{\"page\":1,\"per_page\":6,\"total\":12,\"total_pages\":2,\"data\":[{\"id\":1,\"email\":\"george.bluth@reqres.in\",\"first_name\":\"George\",\"last_name\":\"Bluth\",\"avatar\":\"https:\/\/reqres.in\/img\/faces\/1-image.jpg\"},{\"id\":2,\"email\":\"janet.weaver@reqres.in\",\"first_name\":\"Janet\",\"last_name\":\"Weaver\",\"avatar\":\"https:\/\/reqres.in\/img\/faces\/2-image.jpg\"},{\"id\":3,\"email\":\"emma.wong@reqres.in\",\"first_name\":\"Emma\",\"last_name\":\"Wong\",\"avatar\":\"https:\/\/reqres.in\/img\/faces\/3-image.jpg\"},{\"id\":4,\"email\":\"eve.holt@reqres.in\",\"first_name\":\"Eve\",\"last_name\":\"Holt\",\"avatar\":\"https:\/\/reqres.in\/img\/faces\/4-image.jpg\"},{\"id\":5,\"email\":\"charles.morris@reqres.in\",\"first_name\":\"Charles\",\"last_name\":\"Morris\",\"avatar\":\"https:\/\/reqres.in\/img\/faces\/5-image.jpg\"},{\"id\":6,\"email\":\"tracey.ramos@reqres.in\",\"first_name\":\"Tracey\",\"last_name\":\"Ramos\",\"avatar\":\"https:\/\/reqres.in\/img\/faces\/6-image.jpg\"}],\"support\":{\"url\":\"https:\/\/reqres.in\/#support-heading\",\"text\":\"To keep ReqRes free, contributions towards server costs are appreciated!\"}}\n\n","line":12}},{"name":"param {page:2}","result":{"duration":0,"error_message":"no step-definition method match found for: param {page:2}\nclasspath:conduitApp\/feature\/assertListOfUsers.feature:12","status":"failed"},"match":{"location":"karate","arguments":[]},"keyword":"And","line":12,"doc_string":{"content_type":"","value":"15:55:24.123 classpath:conduitApp\/feature\/assertListOfUsers.feature:12\nAnd param {page:2}\nno step-definition method match found for: param {page:2}\nclasspath:conduitApp\/feature\/assertListOfUsers.feature:12\n","line":12}},{"name":"match response.support.text == \"To keep ReqRes free, contributions towards server costs are appreciated!\"","result":{"duration":0,"status":"skipped"},"match":{"location":"karate","arguments":[]},"keyword":"Then","line":13}],"tags":[{"name":"@validateTheText","line":9},{"name":"@parallel=false","line":1}]}],"name":"conduitApp\/feature\/assertListOfUsers.feature","description":"Assert the users","id":"assert-the-users","keyword":"Feature","uri":"conduitApp\/feature\/assertListOfUsers.feature","tags":[{"name":"@parallel=false","line":1}]}]