{"failedCount":1,"prefixedPath":"classpath:conduitApp\/feature\/assertListOfUsers.feature","packageQualifiedName":"conduitApp.feature.assertListOfUsers","loopIndex":-1,"relativePath":"conduitApp\/feature\/assertListOfUsers.feature","scenarioResults":[{"sectionIndex":0,"stepResults":[{"result":{"nanos":1205875,"millis":1.205875,"status":"passed"},"step":{"background":true,"line":5,"prefix":"*","index":0,"text":"def userList = 'this:Articles.feature@GETListOfUsers'"}},{"result":{"nanos":569542,"millis":0.569542,"status":"passed"},"step":{"background":true,"line":6,"prefix":"*","index":1,"text":"def createAUser = 'this:createUser.feature@POSTCreateUser'"}},{"result":{"nanos":339818041,"millis":339.818041,"status":"passed"},"step":{"line":11,"prefix":"When","index":0,"text":"call read(userList)"},"callResults":[{"failedCount":0,"prefixedPath":"classpath:conduitApp\/feature\/Articles.feature","packageQualifiedName":"conduitApp.feature.Articles","loopIndex":-1,"relativePath":"conduitApp\/feature\/Articles.feature","scenarioResults":[{"sectionIndex":0,"stepResults":[{"result":{"nanos":590208,"millis":0.590208,"status":"passed"},"step":{"background":true,"line":5,"prefix":"*","index":0,"text":"url apiUrl"}},{"result":{"nanos":707917,"millis":0.707917,"status":"passed"},"step":{"background":true,"line":6,"prefix":"*","index":1,"text":"def userList = 'this:\/Articles.feature@GETListOfUsers'"}},{"result":{"nanos":260167,"millis":0.260167,"status":"passed"},"step":{"line":11,"prefix":"Given","index":0,"text":"path '\/api\/users'"}},{"result":{"nanos":320583583,"millis":320.583583,"status":"passed"},"step":{"line":12,"prefix":"When","index":1,"text":"method GET"},"stepLog":"15:55:23.912 request:\n1 > GET https:\/\/reqres.in\/api\/users\n1 > Host: reqres.in\n1 > Connection: Keep-Alive\n1 > User-Agent: Apache-HttpClient\/4.5.14 (Java\/11.0.18)\n1 > Accept-Encoding: gzip,deflate\n\n\n15:55:24.113 response time in milliseconds: 198\n1 < 200\n1 < Date: Thu, 22 Jun 2023 07:55:24 GMT\n1 < Content-Type: application\/json; charset=utf-8\n1 < Transfer-Encoding: chunked\n1 < Connection: keep-alive\n1 < X-Powered-By: Express\n1 < Access-Control-Allow-Origin: *\n1 < Etag: W\/\"3e4-2RLXvr5wTg9YQ6aH95CkYoFNuO8\"\n1 < Via: 1.1 vegur\n1 < Cache-Control: max-age=14400\n1 < CF-Cache-Status: HIT\n1 < Age: 5815\n1 < Report-To: {\"endpoints\":[{\"url\":\"https:\\\/\\\/a.nel.cloudflare.com\\\/report\\\/v3?s=8IbxekZV7kw1aDyOeNEGH%2Bufs0ofJSYwx947zVF9y8atgST7yFa098nIgqY%2FHIEX7QGDItHJck%2BUfizHkmItiqMdMP6ooznOi%2BHjOWIwW0ltae1jcx4mTOwdXg%3D%3D\"}],\"group\":\"cf-nel\",\"max_age\":604800}\n1 < NEL: {\"success_fraction\":0,\"report_to\":\"cf-nel\",\"max_age\":604800}\n1 < Vary: Accept-Encoding\n1 < Server: cloudflare\n1 < CF-RAY: 7db2edc45d1e4697-SIN\n{\"page\":1,\"per_page\":6,\"total\":12,\"total_pages\":2,\"data\":[{\"id\":1,\"email\":\"george.bluth@reqres.in\",\"first_name\":\"George\",\"last_name\":\"Bluth\",\"avatar\":\"https:\/\/reqres.in\/img\/faces\/1-image.jpg\"},{\"id\":2,\"email\":\"janet.weaver@reqres.in\",\"first_name\":\"Janet\",\"last_name\":\"Weaver\",\"avatar\":\"https:\/\/reqres.in\/img\/faces\/2-image.jpg\"},{\"id\":3,\"email\":\"emma.wong@reqres.in\",\"first_name\":\"Emma\",\"last_name\":\"Wong\",\"avatar\":\"https:\/\/reqres.in\/img\/faces\/3-image.jpg\"},{\"id\":4,\"email\":\"eve.holt@reqres.in\",\"first_name\":\"Eve\",\"last_name\":\"Holt\",\"avatar\":\"https:\/\/reqres.in\/img\/faces\/4-image.jpg\"},{\"id\":5,\"email\":\"charles.morris@reqres.in\",\"first_name\":\"Charles\",\"last_name\":\"Morris\",\"avatar\":\"https:\/\/reqres.in\/img\/faces\/5-image.jpg\"},{\"id\":6,\"email\":\"tracey.ramos@reqres.in\",\"first_name\":\"Tracey\",\"last_name\":\"Ramos\",\"avatar\":\"https:\/\/reqres.in\/img\/faces\/6-image.jpg\"}],\"support\":{\"url\":\"https:\/\/reqres.in\/#support-heading\",\"text\":\"To keep ReqRes free, contributions towards server costs are appreciated!\"}}\n\n"}],"line":10,"description":"","durationMillis":322.141875,"failed":false,"tags":["ignore","parallel=false","GETListOfUsers"],"executorName":"main","name":"Get the list of users","startTime":1687420523794,"refId":"[1:10]","endTime":1687420524116,"exampleIndex":-1}],"callDepth":1,"name":"Articles","description":"","resultDate":"2023-06-22 03:55:24 PM","durationMillis":322.141875,"passedCount":1}]},{"result":{"nanos":0,"errorMessage":"no step-definition method match found for: param {page:2}\nclasspath:conduitApp\/feature\/assertListOfUsers.feature:12","millis":0.0,"status":"failed"},"step":{"line":12,"prefix":"And","index":1,"text":"param {page:2}"},"stepLog":"15:55:24.123 classpath:conduitApp\/feature\/assertListOfUsers.feature:12\nAnd param {page:2}\nno step-definition method match found for: param {page:2}\nclasspath:conduitApp\/feature\/assertListOfUsers.feature:12\n"},{"result":{"nanos":0,"millis":0.0,"status":"skipped"},"step":{"line":13,"prefix":"Then","index":2,"text":"match response.support.text == \"To keep ReqRes free, contributions towards server costs are appreciated!\""}}],"line":10,"description":"","durationMillis":341.593458,"failed":true,"error":"no step-definition method match found for: param {page:2}\nclasspath:conduitApp\/feature\/assertListOfUsers.feature:12","tags":["validateTheText","parallel=false"],"executorName":"main","name":"Get the list of users","startTime":1687420523750,"refId":"[1:10]","endTime":1687420524123,"exampleIndex":-1}],"callDepth":0,"name":"Assert the users","description":"","resultDate":"2023-06-22 03:55:24 PM","durationMillis":341.593458,"passedCount":0}