[{"line":2,"elements":[{"line":4,"name":"","description":"","type":"background","keyword":"Background","steps":[{"name":"url apiUrl","result":{"duration":425625,"status":"passed"},"match":{"location":"karate","arguments":[]},"keyword":"*","line":5},{"name":"def userList = 'this:\/Articles.feature@GETListOfUsers'","result":{"duration":586750,"status":"passed"},"match":{"location":"karate","arguments":[]},"comments":["#   * def userList = 'classpath:src\/test\/java\/conduitApp\/feature\/Articles.feature@GETListOfUsers'"],"keyword":"*","line":7}]},{"start_timestamp":"2023-06-22T06:10:24.293Z","line":11,"name":"Get the list of users","description":"","id":"get-the-list-of-users","type":"scenario","keyword":"Scenario","steps":[{"name":"path '\/api\/users'","result":{"duration":179417,"status":"passed"},"match":{"location":"karate","arguments":[]},"keyword":"Given","line":12},{"name":"method GET","result":{"duration":329104209,"status":"passed"},"match":{"location":"karate","arguments":[]},"keyword":"When","line":13,"doc_string":{"content_type":"","value":"14:10:24.456 request:\n1 > GET https:\/\/reqres.in\/api\/users\n1 > Host: reqres.in\n1 > Connection: Keep-Alive\n1 > User-Agent: Apache-HttpClient\/4.5.14 (Java\/11.0.18)\n1 > Accept-Encoding: gzip,deflate\n\n\n14:10:24.629 response time in milliseconds: 169\n1 < 200\n1 < Date: Thu, 22 Jun 2023 06:10:24 GMT\n1 < Content-Type: application\/json; charset=utf-8\n1 < Transfer-Encoding: chunked\n1 < Connection: keep-alive\n1 < X-Powered-By: Express\n1 < Access-Control-Allow-Origin: *\n1 < Etag: W\/\"3e4-2RLXvr5wTg9YQ6aH95CkYoFNuO8\"\n1 < Via: 1.1 vegur\n1 < Cache-Control: max-age=14400\n1 < CF-Cache-Status: HIT\n1 < Age: 2693\n1 < Report-To: {\"endpoints\":[{\"url\":\"https:\\\/\\\/a.nel.cloudflare.com\\\/report\\\/v3?s=uVjWoXvSUiwDM1gB5CnH2DJIrKRDgGABJLRx%2FAVjn8n8oALEV%2Bsk40UJ93mUKxd%2Fl9mdZB62i4CaA8bvmixTv%2Bz74C0o5IzpFp8YZjw9dcHFn4YssgzYxhxPAA%3D%3D\"}],\"group\":\"cf-nel\",\"max_age\":604800}\n1 < NEL: {\"success_fraction\":0,\"report_to\":\"cf-nel\",\"max_age\":604800}\n1 < Vary: Accept-Encoding\n1 < Server: cloudflare\n1 < CF-RAY: 7db253f82ba813e3-KUL\n{\"page\":1,\"per_page\":6,\"total\":12,\"total_pages\":2,\"data\":[{\"id\":1,\"email\":\"george.bluth@reqres.in\",\"first_name\":\"George\",\"last_name\":\"Bluth\",\"avatar\":\"https:\/\/reqres.in\/img\/faces\/1-image.jpg\"},{\"id\":2,\"email\":\"janet.weaver@reqres.in\",\"first_name\":\"Janet\",\"last_name\":\"Weaver\",\"avatar\":\"https:\/\/reqres.in\/img\/faces\/2-image.jpg\"},{\"id\":3,\"email\":\"emma.wong@reqres.in\",\"first_name\":\"Emma\",\"last_name\":\"Wong\",\"avatar\":\"https:\/\/reqres.in\/img\/faces\/3-image.jpg\"},{\"id\":4,\"email\":\"eve.holt@reqres.in\",\"first_name\":\"Eve\",\"last_name\":\"Holt\",\"avatar\":\"https:\/\/reqres.in\/img\/faces\/4-image.jpg\"},{\"id\":5,\"email\":\"charles.morris@reqres.in\",\"first_name\":\"Charles\",\"last_name\":\"Morris\",\"avatar\":\"https:\/\/reqres.in\/img\/faces\/5-image.jpg\"},{\"id\":6,\"email\":\"tracey.ramos@reqres.in\",\"first_name\":\"Tracey\",\"last_name\":\"Ramos\",\"avatar\":\"https:\/\/reqres.in\/img\/faces\/6-image.jpg\"}],\"support\":{\"url\":\"https:\/\/reqres.in\/#support-heading\",\"text\":\"To keep ReqRes free, contributions towards server costs are appreciated!\"}}\n\n","line":13}},{"name":"match response.support.text == \"To keep ReqRes free, contributions towards server costs are appreciated!\"","result":{"duration":16539833,"status":"passed"},"match":{"location":"karate","arguments":[]},"keyword":"Then","line":14}],"tags":[{"name":"@parallel=false","line":1},{"name":"@GETListOfUsers","line":10}]},{"line":4,"name":"","description":"","type":"background","keyword":"Background","steps":[{"name":"url apiUrl","result":{"duration":82000,"status":"passed"},"match":{"location":"karate","arguments":[]},"keyword":"*","line":5},{"name":"def userList = 'this:\/Articles.feature@GETListOfUsers'","result":{"duration":188500,"status":"passed"},"match":{"location":"karate","arguments":[]},"comments":["#   * def userList = 'classpath:src\/test\/java\/conduitApp\/feature\/Articles.feature@GETListOfUsers'"],"keyword":"*","line":7}]},{"start_timestamp":"2023-06-22T06:10:24.663Z","line":17,"name":"Get the list of users","description":"","id":"get-the-list-of-users","type":"scenario","keyword":"Scenario","steps":[{"name":"call read(userList)","result":{"duration":463568584,"status":"passed"},"match":{"location":"karate","arguments":[]},"keyword":"When","line":18},{"name":"conduitApp\/feature\/\/Articles.feature","result":{"duration":0,"status":"passed"},"match":{"location":"karate","arguments":[]},"keyword":"","line":18},{"name":"url apiUrl","result":{"duration":138959,"status":"passed"},"match":{"location":"karate","arguments":[]},"keyword":"> *","line":5},{"name":"def userList = 'this:\/Articles.feature@GETListOfUsers'","result":{"duration":294208,"status":"passed"},"match":{"location":"karate","arguments":[]},"comments":["#   * def userList = 'classpath:src\/test\/java\/conduitApp\/feature\/Articles.feature@GETListOfUsers'"],"keyword":"> *","line":7},{"name":"path '\/api\/users'","result":{"duration":56583,"status":"passed"},"match":{"location":"karate","arguments":[]},"keyword":"> Given","line":12},{"name":"method GET","result":{"duration":451020125,"status":"passed"},"match":{"location":"karate","arguments":[]},"keyword":"> When","line":13,"doc_string":{"content_type":"","value":"14:10:24.675 request:\n1 > GET https:\/\/reqres.in\/api\/users\n1 > Host: reqres.in\n1 > Connection: Keep-Alive\n1 > User-Agent: Apache-HttpClient\/4.5.14 (Java\/11.0.18)\n1 > Accept-Encoding: gzip,deflate\n\n\n14:10:25.124 response time in milliseconds: 448\n1 < 200\n1 < Date: Thu, 22 Jun 2023 06:10:25 GMT\n1 < Content-Type: application\/json; charset=utf-8\n1 < Transfer-Encoding: chunked\n1 < Connection: keep-alive\n1 < X-Powered-By: Express\n1 < Access-Control-Allow-Origin: *\n1 < Etag: W\/\"3e4-2RLXvr5wTg9YQ6aH95CkYoFNuO8\"\n1 < Via: 1.1 vegur\n1 < Cache-Control: max-age=14400\n1 < CF-Cache-Status: REVALIDATED\n1 < Report-To: {\"endpoints\":[{\"url\":\"https:\\\/\\\/a.nel.cloudflare.com\\\/report\\\/v3?s=dJ13jwjNWETKBq2M4BYlnaVEG%2FyojNG%2F63t6FVT%2BMEUWBgXab6eWKnR62BvZq6t%2FufVnnSdtMy6pqrXPOthoccncueN4cG0O%2FlXbMHq3ul9VNfwoZMU2af%2BvyA%3D%3D\"}],\"group\":\"cf-nel\",\"max_age\":604800}\n1 < NEL: {\"success_fraction\":0,\"report_to\":\"cf-nel\",\"max_age\":604800}\n1 < Vary: Accept-Encoding\n1 < Server: cloudflare\n1 < CF-RAY: 7db253f90ef2a3e3-SIN\n{\"page\":1,\"per_page\":6,\"total\":12,\"total_pages\":2,\"data\":[{\"id\":1,\"email\":\"george.bluth@reqres.in\",\"first_name\":\"George\",\"last_name\":\"Bluth\",\"avatar\":\"https:\/\/reqres.in\/img\/faces\/1-image.jpg\"},{\"id\":2,\"email\":\"janet.weaver@reqres.in\",\"first_name\":\"Janet\",\"last_name\":\"Weaver\",\"avatar\":\"https:\/\/reqres.in\/img\/faces\/2-image.jpg\"},{\"id\":3,\"email\":\"emma.wong@reqres.in\",\"first_name\":\"Emma\",\"last_name\":\"Wong\",\"avatar\":\"https:\/\/reqres.in\/img\/faces\/3-image.jpg\"},{\"id\":4,\"email\":\"eve.holt@reqres.in\",\"first_name\":\"Eve\",\"last_name\":\"Holt\",\"avatar\":\"https:\/\/reqres.in\/img\/faces\/4-image.jpg\"},{\"id\":5,\"email\":\"charles.morris@reqres.in\",\"first_name\":\"Charles\",\"last_name\":\"Morris\",\"avatar\":\"https:\/\/reqres.in\/img\/faces\/5-image.jpg\"},{\"id\":6,\"email\":\"tracey.ramos@reqres.in\",\"first_name\":\"Tracey\",\"last_name\":\"Ramos\",\"avatar\":\"https:\/\/reqres.in\/img\/faces\/6-image.jpg\"}],\"support\":{\"url\":\"https:\/\/reqres.in\/#support-heading\",\"text\":\"To keep ReqRes free, contributions towards server costs are appreciated!\"}}\n\n","line":13}},{"name":"match response.support.text == \"To keep ReqRes free, contributions towards server costs are appreciated!\"","result":{"duration":709625,"status":"passed"},"match":{"location":"karate","arguments":[]},"keyword":"> Then","line":14},{"name":"match response.support.text == \"To keep ReqRes free, contributions towards server costs are appreciated!\"","result":{"duration":383542,"status":"passed"},"match":{"location":"karate","arguments":[]},"keyword":"Then","line":19}],"tags":[{"name":"@validateTheText","line":16},{"name":"@parallel=false","line":1}]}],"name":"conduitApp\/feature\/Articles.feature","description":"Articles","id":"articles","keyword":"Feature","uri":"conduitApp\/feature\/Articles.feature","tags":[{"name":"@parallel=false","line":1}]}]