{"failedCount":1,"prefixedPath":"classpath:conduitApp\/feature\/Articles.feature","packageQualifiedName":"conduitApp.feature.Articles","loopIndex":-1,"relativePath":"conduitApp\/feature\/Articles.feature","scenarioResults":[{"sectionIndex":0,"stepResults":[{"result":{"nanos":398167,"millis":0.398167,"status":"passed"},"step":{"background":true,"line":5,"prefix":"*","index":0,"text":"url apiUrl"}},{"result":{"nanos":906583,"millis":0.906583,"status":"passed"},"step":{"background":true,"line":6,"prefix":"*","index":1,"text":"def userList = 'classpath:src\/test\/java\/conduitApp\/feature\/Articles.feature'"}},{"result":{"nanos":218542,"millis":0.218542,"status":"passed"},"step":{"line":11,"prefix":"Given","index":0,"text":"path '\/api\/users'"}},{"result":{"nanos":824890417,"millis":824.890417,"status":"passed"},"step":{"line":12,"prefix":"When","index":1,"text":"method GET"},"stepLog":"13:32:14.376 request:\n1 > GET https:\/\/reqres.in\/api\/users\n1 > Host: reqres.in\n1 > Connection: Keep-Alive\n1 > User-Agent: Apache-HttpClient\/4.5.14 (Java\/11.0.18)\n1 > Accept-Encoding: gzip,deflate\n\n\n13:32:15.076 response time in milliseconds: 696\n1 < 200\n1 < Date: Thu, 22 Jun 2023 05:32:14 GMT\n1 < Content-Type: application\/json; charset=utf-8\n1 < Transfer-Encoding: chunked\n1 < Connection: keep-alive\n1 < X-Powered-By: Express\n1 < Access-Control-Allow-Origin: *\n1 < Etag: W\/\"3e4-2RLXvr5wTg9YQ6aH95CkYoFNuO8\"\n1 < Via: 1.1 vegur\n1 < Cache-Control: max-age=14400\n1 < CF-Cache-Status: HIT\n1 < Age: 5054\n1 < Report-To: {\"endpoints\":[{\"url\":\"https:\\\/\\\/a.nel.cloudflare.com\\\/report\\\/v3?s=PskUdIcuOIbARekRtAc7821r8gnpydkw45tmuto%2B%2FQjM%2B5dsZ9kBwmXZJqSBTl1aK4JFc4pKgm0LrxYbn4ZXMmgtXJFmfciVLFj8u4WBqcJFd4norniNa5JFkw%3D%3D\"}],\"group\":\"cf-nel\",\"max_age\":604800}\n1 < NEL: {\"success_fraction\":0,\"report_to\":\"cf-nel\",\"max_age\":604800}\n1 < Vary: Accept-Encoding\n1 < Server: cloudflare\n1 < CF-RAY: 7db21c108bc3427b-KUL\n{\"page\":1,\"per_page\":6,\"total\":12,\"total_pages\":2,\"data\":[{\"id\":1,\"email\":\"george.bluth@reqres.in\",\"first_name\":\"George\",\"last_name\":\"Bluth\",\"avatar\":\"https:\/\/reqres.in\/img\/faces\/1-image.jpg\"},{\"id\":2,\"email\":\"janet.weaver@reqres.in\",\"first_name\":\"Janet\",\"last_name\":\"Weaver\",\"avatar\":\"https:\/\/reqres.in\/img\/faces\/2-image.jpg\"},{\"id\":3,\"email\":\"emma.wong@reqres.in\",\"first_name\":\"Emma\",\"last_name\":\"Wong\",\"avatar\":\"https:\/\/reqres.in\/img\/faces\/3-image.jpg\"},{\"id\":4,\"email\":\"eve.holt@reqres.in\",\"first_name\":\"Eve\",\"last_name\":\"Holt\",\"avatar\":\"https:\/\/reqres.in\/img\/faces\/4-image.jpg\"},{\"id\":5,\"email\":\"charles.morris@reqres.in\",\"first_name\":\"Charles\",\"last_name\":\"Morris\",\"avatar\":\"https:\/\/reqres.in\/img\/faces\/5-image.jpg\"},{\"id\":6,\"email\":\"tracey.ramos@reqres.in\",\"first_name\":\"Tracey\",\"last_name\":\"Ramos\",\"avatar\":\"https:\/\/reqres.in\/img\/faces\/6-image.jpg\"}],\"support\":{\"url\":\"https:\/\/reqres.in\/#support-heading\",\"text\":\"To keep ReqRes free, contributions towards server costs are appreciated!\"}}\n\n"},{"result":{"nanos":21637542,"millis":21.637542,"status":"passed"},"step":{"line":13,"prefix":"Then","index":2,"text":"match response.support.text == \"To keep ReqRes free, contributions towards server costs are appreciated!\""}}],"line":10,"description":"","durationMillis":848.051251,"failed":false,"tags":["parallel=false","GETListOfUsers"],"executorName":"main","name":"Get the list of users","startTime":1687411934244,"refId":"[1:10]","endTime":1687411935118,"exampleIndex":-1},{"sectionIndex":1,"stepResults":[{"result":{"nanos":108292,"millis":0.108292,"status":"passed"},"step":{"background":true,"line":5,"prefix":"*","index":0,"text":"url apiUrl"}},{"result":{"nanos":292125,"millis":0.292125,"status":"passed"},"step":{"background":true,"line":6,"prefix":"*","index":1,"text":"def userList = 'classpath:src\/test\/java\/conduitApp\/feature\/Articles.feature'"}},{"result":{"nanos":10334959,"errorMessage":"js failed:\n>>>>\n01: read(userList)\n<<<<\norg.graalvm.polyglot.PolyglotException: not found: src\/test\/java\/conduitApp\/feature\/Articles.feature\n- com.intuit.karate.resource.ResourceUtils.getResource(ResourceUtils.java:126)\n- com.intuit.karate.core.ScenarioFileReader.toResource(ScenarioFileReader.java:129)\n- com.intuit.karate.core.ScenarioFileReader.readFile(ScenarioFileReader.java:64)\n- com.intuit.karate.core.ScenarioEngine.lambda$new$0(ScenarioEngine.java:121)\n- <js>.:program(Unnamed:1)\n\nclasspath:conduitApp\/feature\/Articles.feature:17","millis":10.334959,"status":"failed"},"step":{"line":17,"prefix":"When","index":0,"text":"call read(userList)"},"stepLog":"13:32:15.141 classpath:conduitApp\/feature\/Articles.feature:17\nWhen call read(userList)\njs failed:\n>>>>\n01: read(userList)\n<<<<\norg.graalvm.polyglot.PolyglotException: not found: src\/test\/java\/conduitApp\/feature\/Articles.feature\n- com.intuit.karate.resource.ResourceUtils.getResource(ResourceUtils.java:126)\n- com.intuit.karate.core.ScenarioFileReader.toResource(ScenarioFileReader.java:129)\n- com.intuit.karate.core.ScenarioFileReader.readFile(ScenarioFileReader.java:64)\n- com.intuit.karate.core.ScenarioEngine.lambda$new$0(ScenarioEngine.java:121)\n- <js>.:program(Unnamed:1)\n\nclasspath:conduitApp\/feature\/Articles.feature:17\n"},{"result":{"nanos":0,"millis":0.0,"status":"skipped"},"step":{"line":18,"prefix":"Then","index":1,"text":"match response.support.text == \"To keep ReqRes free, contributions towards server costs are appreciated!\""}}],"line":16,"description":"","durationMillis":10.735376,"failed":true,"error":"js failed:\n>>>>\n01: read(userList)\n<<<<\norg.graalvm.polyglot.PolyglotException: not found: src\/test\/java\/conduitApp\/feature\/Articles.feature\n- com.intuit.karate.resource.ResourceUtils.getResource(ResourceUtils.java:126)\n- com.intuit.karate.core.ScenarioFileReader.toResource(ScenarioFileReader.java:129)\n- com.intuit.karate.core.ScenarioFileReader.readFile(ScenarioFileReader.java:64)\n- com.intuit.karate.core.ScenarioEngine.lambda$new$0(ScenarioEngine.java:121)\n- <js>.:program(Unnamed:1)\n\nclasspath:conduitApp\/feature\/Articles.feature:17","tags":["validateTheText","parallel=false"],"executorName":"main","name":"Get the list of users","startTime":1687411935124,"refId":"[2:16]","endTime":1687411935141,"exampleIndex":-1}],"callDepth":0,"name":"Articles","description":"","resultDate":"2023-06-22 01:32:15 PM","durationMillis":858.786627,"passedCount":1}