{"failedCount":0,"prefixedPath":"classpath:conduitApp\/feature\/Articles.feature","packageQualifiedName":"conduitApp.feature.Articles","loopIndex":-1,"relativePath":"conduitApp\/feature\/Articles.feature","scenarioResults":[{"sectionIndex":0,"stepResults":[{"result":{"nanos":870625,"millis":0.870625,"status":"passed"},"step":{"background":true,"line":5,"prefix":"*","index":0,"text":"url apiUrl"}},{"result":{"nanos":324209,"millis":0.324209,"status":"passed"},"step":{"line":11,"prefix":"Given","index":0,"text":"path '\/api\/users'"}},{"result":{"nanos":264642959,"millis":264.642959,"status":"passed"},"step":{"line":12,"prefix":"When","index":1,"text":"method GET"},"stepLog":"13:21:55.192 request:\n1 > GET https:\/\/reqres.in\/api\/users\n1 > Host: reqres.in\n1 > Connection: Keep-Alive\n1 > User-Agent: Apache-HttpClient\/4.5.14 (Java\/11.0.18)\n1 > Accept-Encoding: gzip,deflate\n\n\n13:21:55.355 response time in milliseconds: 161\n1 < 200\n1 < Date: Thu, 22 Jun 2023 05:21:55 GMT\n1 < Content-Type: application\/json; charset=utf-8\n1 < Transfer-Encoding: chunked\n1 < Connection: keep-alive\n1 < X-Powered-By: Express\n1 < Access-Control-Allow-Origin: *\n1 < Etag: W\/\"3e4-2RLXvr5wTg9YQ6aH95CkYoFNuO8\"\n1 < Via: 1.1 vegur\n1 < Cache-Control: max-age=14400\n1 < CF-Cache-Status: HIT\n1 < Age: 4586\n1 < Report-To: {\"endpoints\":[{\"url\":\"https:\\\/\\\/a.nel.cloudflare.com\\\/report\\\/v3?s=OTwTdESQwecvRu83B4FirhU4xCqoPQjzj0rrQqC7rTPG%2FGx1NsGmsiXzpsFVj21n4VSgjUhP4X1FFaeyCiFj3VpFKbgbn8BIzz2wCb3UXujczzMLfk0CS%2B2ThQ%3D%3D\"}],\"group\":\"cf-nel\",\"max_age\":604800}\n1 < NEL: {\"success_fraction\":0,\"report_to\":\"cf-nel\",\"max_age\":604800}\n1 < Vary: Accept-Encoding\n1 < Server: cloudflare\n1 < CF-RAY: 7db20cf1af82a3cd-SIN\n{\"page\":1,\"per_page\":6,\"total\":12,\"total_pages\":2,\"data\":[{\"id\":1,\"email\":\"george.bluth@reqres.in\",\"first_name\":\"George\",\"last_name\":\"Bluth\",\"avatar\":\"https:\/\/reqres.in\/img\/faces\/1-image.jpg\"},{\"id\":2,\"email\":\"janet.weaver@reqres.in\",\"first_name\":\"Janet\",\"last_name\":\"Weaver\",\"avatar\":\"https:\/\/reqres.in\/img\/faces\/2-image.jpg\"},{\"id\":3,\"email\":\"emma.wong@reqres.in\",\"first_name\":\"Emma\",\"last_name\":\"Wong\",\"avatar\":\"https:\/\/reqres.in\/img\/faces\/3-image.jpg\"},{\"id\":4,\"email\":\"eve.holt@reqres.in\",\"first_name\":\"Eve\",\"last_name\":\"Holt\",\"avatar\":\"https:\/\/reqres.in\/img\/faces\/4-image.jpg\"},{\"id\":5,\"email\":\"charles.morris@reqres.in\",\"first_name\":\"Charles\",\"last_name\":\"Morris\",\"avatar\":\"https:\/\/reqres.in\/img\/faces\/5-image.jpg\"},{\"id\":6,\"email\":\"tracey.ramos@reqres.in\",\"first_name\":\"Tracey\",\"last_name\":\"Ramos\",\"avatar\":\"https:\/\/reqres.in\/img\/faces\/6-image.jpg\"}],\"support\":{\"url\":\"https:\/\/reqres.in\/#support-heading\",\"text\":\"To keep ReqRes free, contributions towards server costs are appreciated!\"}}\n\n"},{"result":{"nanos":16011209,"millis":16.011209,"status":"passed"},"step":{"line":13,"prefix":"Then","index":2,"text":"match response.support.text == \"To keep ReqRes free, contributions towards server costs are appreciated!\""}}],"line":10,"description":"","durationMillis":281.849002,"failed":false,"tags":["parallel=false","GETListOfUsers"],"executorName":"main","name":"Get the list of users","startTime":1687411315077,"refId":"[1:10]","endTime":1687411315384,"exampleIndex":-1}],"callDepth":0,"name":"Articles","description":"","resultDate":"2023-06-22 01:21:55 PM","durationMillis":281.849002,"passedCount":1}