[{"line":2,"elements":[{"line":4,"name":"","description":"","type":"background","keyword":"Background","steps":[{"name":"url apiUrl","result":{"duration":568417,"status":"passed"},"match":{"location":"karate","arguments":[]},"keyword":"*","line":5},{"name":"def userList = 'this:\/Articles.feature@GETListOfUsers'","result":{"duration":784125,"status":"passed"},"match":{"location":"karate","arguments":[]},"comments":["#   * def userList = 'classpath:src\/test\/java\/conduitApp\/feature\/Articles.feature@GETListOfUsers'"],"keyword":"*","line":7}]},{"start_timestamp":"2023-06-22T05:58:23.734Z","line":11,"name":"Get the list of users","description":"","id":"get-the-list-of-users","type":"scenario","keyword":"Scenario","steps":[{"name":"path '\/api\/users'","result":{"duration":220375,"status":"passed"},"match":{"location":"karate","arguments":[]},"keyword":"Given","line":12},{"name":"method GET","result":{"duration":403911167,"status":"passed"},"match":{"location":"karate","arguments":[]},"keyword":"When","line":13,"doc_string":{"content_type":"","value":"13:58:23.894 request:\n1 > GET https:\/\/reqres.in\/api\/users\n1 > Host: reqres.in\n1 > Connection: Keep-Alive\n1 > User-Agent: Apache-HttpClient\/4.5.14 (Java\/11.0.18)\n1 > Accept-Encoding: gzip,deflate\n\n\n13:58:24.144 response time in milliseconds: 247\n1 < 200\n1 < Date: Thu, 22 Jun 2023 05:58:24 GMT\n1 < Content-Type: application\/json; charset=utf-8\n1 < Transfer-Encoding: chunked\n1 < Connection: keep-alive\n1 < X-Powered-By: Express\n1 < Access-Control-Allow-Origin: *\n1 < Etag: W\/\"3e4-2RLXvr5wTg9YQ6aH95CkYoFNuO8\"\n1 < Via: 1.1 vegur\n1 < Cache-Control: max-age=14400\n1 < CF-Cache-Status: HIT\n1 < Age: 6624\n1 < Report-To: {\"endpoints\":[{\"url\":\"https:\\\/\\\/a.nel.cloudflare.com\\\/report\\\/v3?s=IFf1g96OKri8ZnZkJ0DY7p9hOJNY4eVrxfNygxyOF%2BRwnDVH%2FXsWgh0z8BUrUJ9bKqGDhrL%2FVrCce0mnu0%2BSsLa5IdyfFspFkAXOphHJT8PNapB9Izcemsk49g%3D%3D\"}],\"group\":\"cf-nel\",\"max_age\":604800}\n1 < NEL: {\"success_fraction\":0,\"report_to\":\"cf-nel\",\"max_age\":604800}\n1 < Vary: Accept-Encoding\n1 < Server: cloudflare\n1 < CF-RAY: 7db2426139ab7564-KUL\n{\"page\":1,\"per_page\":6,\"total\":12,\"total_pages\":2,\"data\":[{\"id\":1,\"email\":\"george.bluth@reqres.in\",\"first_name\":\"George\",\"last_name\":\"Bluth\",\"avatar\":\"https:\/\/reqres.in\/img\/faces\/1-image.jpg\"},{\"id\":2,\"email\":\"janet.weaver@reqres.in\",\"first_name\":\"Janet\",\"last_name\":\"Weaver\",\"avatar\":\"https:\/\/reqres.in\/img\/faces\/2-image.jpg\"},{\"id\":3,\"email\":\"emma.wong@reqres.in\",\"first_name\":\"Emma\",\"last_name\":\"Wong\",\"avatar\":\"https:\/\/reqres.in\/img\/faces\/3-image.jpg\"},{\"id\":4,\"email\":\"eve.holt@reqres.in\",\"first_name\":\"Eve\",\"last_name\":\"Holt\",\"avatar\":\"https:\/\/reqres.in\/img\/faces\/4-image.jpg\"},{\"id\":5,\"email\":\"charles.morris@reqres.in\",\"first_name\":\"Charles\",\"last_name\":\"Morris\",\"avatar\":\"https:\/\/reqres.in\/img\/faces\/5-image.jpg\"},{\"id\":6,\"email\":\"tracey.ramos@reqres.in\",\"first_name\":\"Tracey\",\"last_name\":\"Ramos\",\"avatar\":\"https:\/\/reqres.in\/img\/faces\/6-image.jpg\"}],\"support\":{\"url\":\"https:\/\/reqres.in\/#support-heading\",\"text\":\"To keep ReqRes free, contributions towards server costs are appreciated!\"}}\n\n","line":13}},{"name":"match response.support.text == \"To keep ReqRes free, contributions towards server costs are appreciated!\"","result":{"duration":19379125,"status":"passed"},"match":{"location":"karate","arguments":[]},"keyword":"Then","line":14}],"tags":[{"name":"@parallel=false","line":1},{"name":"@GETListOfUsers","line":10}]},{"line":4,"name":"","description":"","type":"background","keyword":"Background","steps":[{"name":"url apiUrl","result":{"duration":87541,"status":"passed"},"match":{"location":"karate","arguments":[]},"keyword":"*","line":5},{"name":"def userList = 'this:\/Articles.feature@GETListOfUsers'","result":{"duration":210583,"status":"passed"},"match":{"location":"karate","arguments":[]},"comments":["#   * def userList = 'classpath:src\/test\/java\/conduitApp\/feature\/Articles.feature@GETListOfUsers'"],"keyword":"*","line":7}]},{"start_timestamp":"2023-06-22T05:58:24.185Z","line":17,"name":"Get the list of users","description":"","id":"get-the-list-of-users","type":"scenario","keyword":"Scenario","steps":[{"name":"call read(userList)","result":{"duration":58537792,"status":"passed"},"match":{"location":"karate","arguments":[]},"keyword":"When","line":18},{"name":"conduitApp\/feature\/\/Articles.feature","result":{"duration":0,"status":"passed"},"match":{"location":"karate","arguments":[]},"keyword":"","line":18},{"name":"url apiUrl","result":{"duration":160958,"status":"passed"},"match":{"location":"karate","arguments":[]},"keyword":"> *","line":5},{"name":"def userList = 'this:\/Articles.feature@GETListOfUsers'","result":{"duration":429666,"status":"passed"},"match":{"location":"karate","arguments":[]},"comments":["#   * def userList = 'classpath:src\/test\/java\/conduitApp\/feature\/Articles.feature@GETListOfUsers'"],"keyword":"> *","line":7},{"name":"path '\/api\/users'","result":{"duration":56666,"status":"passed"},"match":{"location":"karate","arguments":[]},"keyword":"> Given","line":12},{"name":"method GET","result":{"duration":45334791,"status":"passed"},"match":{"location":"karate","arguments":[]},"keyword":"> When","line":13,"doc_string":{"content_type":"","value":"13:58:24.198 request:\n1 > GET https:\/\/reqres.in\/api\/users\n1 > Host: reqres.in\n1 > Connection: Keep-Alive\n1 > User-Agent: Apache-HttpClient\/4.5.14 (Java\/11.0.18)\n1 > Accept-Encoding: gzip,deflate\n\n\n13:58:24.242 response time in milliseconds: 43\n1 < 200\n1 < Date: Thu, 22 Jun 2023 05:58:24 GMT\n1 < Content-Type: application\/json; charset=utf-8\n1 < Transfer-Encoding: chunked\n1 < Connection: keep-alive\n1 < X-Powered-By: Express\n1 < Access-Control-Allow-Origin: *\n1 < Etag: W\/\"3e4-2RLXvr5wTg9YQ6aH95CkYoFNuO8\"\n1 < Via: 1.1 vegur\n1 < Cache-Control: max-age=14400\n1 < CF-Cache-Status: HIT\n1 < Age: 1973\n1 < Report-To: {\"endpoints\":[{\"url\":\"https:\\\/\\\/a.nel.cloudflare.com\\\/report\\\/v3?s=invjeHsgbEhpMBOY149%2FoWOhROkg6sM9hFSHwQV5aLCfOwLKwjMH68f7HS%2FwHCJJbpOp1nA1%2BRV5s91Mvweg8eAQxYOfWFtc6TirwLkbNqDlEO%2F6GT%2BMRSFO5g%3D%3D\"}],\"group\":\"cf-nel\",\"max_age\":604800}\n1 < NEL: {\"success_fraction\":0,\"report_to\":\"cf-nel\",\"max_age\":604800}\n1 < Vary: Accept-Encoding\n1 < Server: cloudflare\n1 < CF-RAY: 7db242620c0513e0-KUL\n{\"page\":1,\"per_page\":6,\"total\":12,\"total_pages\":2,\"data\":[{\"id\":1,\"email\":\"george.bluth@reqres.in\",\"first_name\":\"George\",\"last_name\":\"Bluth\",\"avatar\":\"https:\/\/reqres.in\/img\/faces\/1-image.jpg\"},{\"id\":2,\"email\":\"janet.weaver@reqres.in\",\"first_name\":\"Janet\",\"last_name\":\"Weaver\",\"avatar\":\"https:\/\/reqres.in\/img\/faces\/2-image.jpg\"},{\"id\":3,\"email\":\"emma.wong@reqres.in\",\"first_name\":\"Emma\",\"last_name\":\"Wong\",\"avatar\":\"https:\/\/reqres.in\/img\/faces\/3-image.jpg\"},{\"id\":4,\"email\":\"eve.holt@reqres.in\",\"first_name\":\"Eve\",\"last_name\":\"Holt\",\"avatar\":\"https:\/\/reqres.in\/img\/faces\/4-image.jpg\"},{\"id\":5,\"email\":\"charles.morris@reqres.in\",\"first_name\":\"Charles\",\"last_name\":\"Morris\",\"avatar\":\"https:\/\/reqres.in\/img\/faces\/5-image.jpg\"},{\"id\":6,\"email\":\"tracey.ramos@reqres.in\",\"first_name\":\"Tracey\",\"last_name\":\"Ramos\",\"avatar\":\"https:\/\/reqres.in\/img\/faces\/6-image.jpg\"}],\"support\":{\"url\":\"https:\/\/reqres.in\/#support-heading\",\"text\":\"To keep ReqRes free, contributions towards server costs are appreciated!\"}}\n\n","line":13}},{"name":"match response.support.text == \"To keep ReqRes free, contributions towards server costs are appreciated!\"","result":{"duration":417833,"status":"passed"},"match":{"location":"karate","arguments":[]},"keyword":"> Then","line":14},{"name":"match response.support.text == \"To keep ReqRes free, contributions towards server costs are appreciated!\"","result":{"duration":288667,"status":"passed"},"match":{"location":"karate","arguments":[]},"keyword":"Then","line":19}],"tags":[{"name":"@validateTheText","line":16},{"name":"@parallel=false","line":1}]}],"name":"conduitApp\/feature\/Articles.feature","description":"Articles","id":"articles","keyword":"Feature","uri":"conduitApp\/feature\/Articles.feature","tags":[{"name":"@parallel=false","line":1}]}]