[{"line":2,"elements":[{"line":4,"name":"","description":"","type":"background","keyword":"Background","steps":[{"name":"url apiUrl","result":{"duration":655333,"status":"passed"},"match":{"location":"karate","arguments":[]},"keyword":"*","line":5},{"name":"def userList = 'this:\/Articles.feature@GETListOfUsers'","result":{"duration":678792,"status":"passed"},"match":{"location":"karate","arguments":[]},"comments":["#   * def userList = 'classpath:src\/test\/java\/conduitApp\/feature\/Articles.feature@GETListOfUsers'"],"keyword":"*","line":7}]},{"start_timestamp":"2023-06-22T06:10:54.146Z","line":11,"name":"Get the list of users","description":"","id":"get-the-list-of-users","type":"scenario","keyword":"Scenario","steps":[{"name":"path '\/api\/users'","result":{"duration":187042,"status":"passed"},"match":{"location":"karate","arguments":[]},"keyword":"Given","line":12},{"name":"method GET","result":{"duration":357442000,"status":"passed"},"match":{"location":"karate","arguments":[]},"keyword":"When","line":13,"doc_string":{"content_type":"","value":"14:10:54.292 request:\n1 > GET https:\/\/reqres.in\/api\/users\n1 > Host: reqres.in\n1 > Connection: Keep-Alive\n1 > User-Agent: Apache-HttpClient\/4.5.14 (Java\/11.0.18)\n1 > Accept-Encoding: gzip,deflate\n\n\n14:10:54.515 response time in milliseconds: 221\n1 < 200\n1 < Date: Thu, 22 Jun 2023 06:10:54 GMT\n1 < Content-Type: application\/json; charset=utf-8\n1 < Transfer-Encoding: chunked\n1 < Connection: keep-alive\n1 < X-Powered-By: Express\n1 < Access-Control-Allow-Origin: *\n1 < Etag: W\/\"3e4-2RLXvr5wTg9YQ6aH95CkYoFNuO8\"\n1 < Via: 1.1 vegur\n1 < Cache-Control: max-age=14400\n1 < CF-Cache-Status: HIT\n1 < Age: 6917\n1 < Report-To: {\"endpoints\":[{\"url\":\"https:\\\/\\\/a.nel.cloudflare.com\\\/report\\\/v3?s=82njCLiSiHcb%2F4OJq7Q7VJUDuNCOstooLmKTfvzv6gcgntg3cBvO5kq9W%2FN%2Fa5WvtltmUu6q7D6DRPY2xH3jghdx2pvINnMbRGBu63hira8j7oHI2PvTh5%2FUGA%3D%3D\"}],\"group\":\"cf-nel\",\"max_age\":604800}\n1 < NEL: {\"success_fraction\":0,\"report_to\":\"cf-nel\",\"max_age\":604800}\n1 < Vary: Accept-Encoding\n1 < Server: cloudflare\n1 < CF-RAY: 7db254b2eb1c4927-SIN\n{\"page\":1,\"per_page\":6,\"total\":12,\"total_pages\":2,\"data\":[{\"id\":1,\"email\":\"george.bluth@reqres.in\",\"first_name\":\"George\",\"last_name\":\"Bluth\",\"avatar\":\"https:\/\/reqres.in\/img\/faces\/1-image.jpg\"},{\"id\":2,\"email\":\"janet.weaver@reqres.in\",\"first_name\":\"Janet\",\"last_name\":\"Weaver\",\"avatar\":\"https:\/\/reqres.in\/img\/faces\/2-image.jpg\"},{\"id\":3,\"email\":\"emma.wong@reqres.in\",\"first_name\":\"Emma\",\"last_name\":\"Wong\",\"avatar\":\"https:\/\/reqres.in\/img\/faces\/3-image.jpg\"},{\"id\":4,\"email\":\"eve.holt@reqres.in\",\"first_name\":\"Eve\",\"last_name\":\"Holt\",\"avatar\":\"https:\/\/reqres.in\/img\/faces\/4-image.jpg\"},{\"id\":5,\"email\":\"charles.morris@reqres.in\",\"first_name\":\"Charles\",\"last_name\":\"Morris\",\"avatar\":\"https:\/\/reqres.in\/img\/faces\/5-image.jpg\"},{\"id\":6,\"email\":\"tracey.ramos@reqres.in\",\"first_name\":\"Tracey\",\"last_name\":\"Ramos\",\"avatar\":\"https:\/\/reqres.in\/img\/faces\/6-image.jpg\"}],\"support\":{\"url\":\"https:\/\/reqres.in\/#support-heading\",\"text\":\"To keep ReqRes free, contributions towards server costs are appreciated!\"}}\n\n","line":13}},{"name":"match response.support.text == \"To keep ReqRes free, contributions towards server costs are appreciated!\"","result":{"duration":16126833,"status":"passed"},"match":{"location":"karate","arguments":[]},"keyword":"Then","line":14}],"tags":[{"name":"@parallel=false","line":1},{"name":"@GETListOfUsers","line":10}]},{"line":4,"name":"","description":"","type":"background","keyword":"Background","steps":[{"name":"url apiUrl","result":{"duration":103167,"status":"passed"},"match":{"location":"karate","arguments":[]},"keyword":"*","line":5},{"name":"def userList = 'this:\/Articles.feature@GETListOfUsers'","result":{"duration":305208,"status":"passed"},"match":{"location":"karate","arguments":[]},"comments":["#   * def userList = 'classpath:src\/test\/java\/conduitApp\/feature\/Articles.feature@GETListOfUsers'"],"keyword":"*","line":7}]},{"start_timestamp":"2023-06-22T06:10:54.549Z","line":17,"name":"Get the list of users","description":"","id":"get-the-list-of-users","type":"scenario","keyword":"Scenario","steps":[{"name":"call read(userList)","result":{"duration":127261250,"status":"passed"},"match":{"location":"karate","arguments":[]},"keyword":"When","line":18},{"name":"conduitApp\/feature\/\/Articles.feature","result":{"duration":0,"status":"passed"},"match":{"location":"karate","arguments":[]},"keyword":"","line":18},{"name":"url apiUrl","result":{"duration":125500,"status":"passed"},"match":{"location":"karate","arguments":[]},"keyword":"> *","line":5},{"name":"def userList = 'this:\/Articles.feature@GETListOfUsers'","result":{"duration":286542,"status":"passed"},"match":{"location":"karate","arguments":[]},"comments":["#   * def userList = 'classpath:src\/test\/java\/conduitApp\/feature\/Articles.feature@GETListOfUsers'"],"keyword":"> *","line":7},{"name":"path '\/api\/users'","result":{"duration":52375,"status":"passed"},"match":{"location":"karate","arguments":[]},"keyword":"> Given","line":12},{"name":"method GET","result":{"duration":115688333,"status":"passed"},"match":{"location":"karate","arguments":[]},"keyword":"> When","line":13,"doc_string":{"content_type":"","value":"14:10:54.560 request:\n1 > GET https:\/\/reqres.in\/api\/users\n1 > Host: reqres.in\n1 > Connection: Keep-Alive\n1 > User-Agent: Apache-HttpClient\/4.5.14 (Java\/11.0.18)\n1 > Accept-Encoding: gzip,deflate\n\n\n14:10:54.673 response time in milliseconds: 113\n1 < 200\n1 < Date: Thu, 22 Jun 2023 06:10:54 GMT\n1 < Content-Type: application\/json; charset=utf-8\n1 < Transfer-Encoding: chunked\n1 < Connection: keep-alive\n1 < X-Powered-By: Express\n1 < Access-Control-Allow-Origin: *\n1 < Etag: W\/\"3e4-2RLXvr5wTg9YQ6aH95CkYoFNuO8\"\n1 < Via: 1.1 vegur\n1 < Cache-Control: max-age=14400\n1 < CF-Cache-Status: HIT\n1 < Age: 29\n1 < Report-To: {\"endpoints\":[{\"url\":\"https:\\\/\\\/a.nel.cloudflare.com\\\/report\\\/v3?s=JQdhQmO2jrv2zBa2s%2FTJbLck6xVi9qVsgxUOcW8gvU6lzGWu21u2NQ9tPJD7T%2BxooMcYOHOwna9PolmAHzFZCT5VV26EiBcNzFn0pdbPj7EcGsGD5LVtlVU9Vg%3D%3D\"}],\"group\":\"cf-nel\",\"max_age\":604800}\n1 < NEL: {\"success_fraction\":0,\"report_to\":\"cf-nel\",\"max_age\":604800}\n1 < Vary: Accept-Encoding\n1 < Server: cloudflare\n1 < CF-RAY: 7db254b3eddb18ec-SIN\n{\"page\":1,\"per_page\":6,\"total\":12,\"total_pages\":2,\"data\":[{\"id\":1,\"email\":\"george.bluth@reqres.in\",\"first_name\":\"George\",\"last_name\":\"Bluth\",\"avatar\":\"https:\/\/reqres.in\/img\/faces\/1-image.jpg\"},{\"id\":2,\"email\":\"janet.weaver@reqres.in\",\"first_name\":\"Janet\",\"last_name\":\"Weaver\",\"avatar\":\"https:\/\/reqres.in\/img\/faces\/2-image.jpg\"},{\"id\":3,\"email\":\"emma.wong@reqres.in\",\"first_name\":\"Emma\",\"last_name\":\"Wong\",\"avatar\":\"https:\/\/reqres.in\/img\/faces\/3-image.jpg\"},{\"id\":4,\"email\":\"eve.holt@reqres.in\",\"first_name\":\"Eve\",\"last_name\":\"Holt\",\"avatar\":\"https:\/\/reqres.in\/img\/faces\/4-image.jpg\"},{\"id\":5,\"email\":\"charles.morris@reqres.in\",\"first_name\":\"Charles\",\"last_name\":\"Morris\",\"avatar\":\"https:\/\/reqres.in\/img\/faces\/5-image.jpg\"},{\"id\":6,\"email\":\"tracey.ramos@reqres.in\",\"first_name\":\"Tracey\",\"last_name\":\"Ramos\",\"avatar\":\"https:\/\/reqres.in\/img\/faces\/6-image.jpg\"}],\"support\":{\"url\":\"https:\/\/reqres.in\/#support-heading\",\"text\":\"To keep ReqRes free, contributions towards server costs are appreciated!\"}}\n\n","line":13}},{"name":"match response.support.text == \"To keep ReqRes free, contributions towards server costs are appreciated!\"","result":{"duration":549083,"status":"passed"},"match":{"location":"karate","arguments":[]},"keyword":"> Then","line":14},{"name":"match response.support.text == \"To keep ReqRes free, contributions towards server costs are appreciated!\"","result":{"duration":741291,"status":"passed"},"match":{"location":"karate","arguments":[]},"keyword":"Then","line":19}],"tags":[{"name":"@validateTheText","line":16},{"name":"@parallel=false","line":1}]}],"name":"conduitApp\/feature\/Articles.feature","description":"Articles","id":"articles","keyword":"Feature","uri":"conduitApp\/feature\/Articles.feature","tags":[{"name":"@parallel=false","line":1}]}]