{"failedCount":0,"prefixedPath":"classpath:conduitApp\/feature\/assertListOfUsers.feature","packageQualifiedName":"conduitApp.feature.assertListOfUsers","loopIndex":-1,"relativePath":"conduitApp\/feature\/assertListOfUsers.feature","scenarioResults":[{"sectionIndex":0,"stepResults":[{"result":{"nanos":242500,"millis":0.2425,"status":"passed"},"step":{"background":true,"line":5,"prefix":"*","index":0,"text":"def userList = 'this:Articles.feature@GETListOfUsers'"}},{"result":{"nanos":123247416,"millis":123.247416,"status":"passed"},"step":{"line":10,"prefix":"When","index":0,"text":"call read(userList)"},"callResults":[{"failedCount":0,"prefixedPath":"classpath:conduitApp\/feature\/Articles.feature","packageQualifiedName":"conduitApp.feature.Articles","loopIndex":-1,"relativePath":"conduitApp\/feature\/Articles.feature","scenarioResults":[{"sectionIndex":0,"stepResults":[{"result":{"nanos":59625,"millis":0.059625,"status":"passed"},"step":{"background":true,"line":5,"prefix":"*","index":0,"text":"url apiUrl"}},{"result":{"nanos":310708,"millis":0.310708,"status":"passed"},"step":{"comments":["#   * def userList = 'classpath:src\/test\/java\/conduitApp\/feature\/Articles.feature@GETListOfUsers'"],"background":true,"line":7,"prefix":"*","index":1,"text":"def userList = 'this:\/Articles.feature@GETListOfUsers'"}},{"result":{"nanos":96416,"millis":0.096416,"status":"passed"},"step":{"line":12,"prefix":"Given","index":0,"text":"path '\/api\/users'"}},{"result":{"nanos":118254958,"millis":118.254958,"status":"passed"},"step":{"line":13,"prefix":"When","index":1,"text":"method GET"},"stepLog":"14:10:55.041 request:\n1 > GET https:\/\/reqres.in\/api\/users\n1 > Host: reqres.in\n1 > Connection: Keep-Alive\n1 > User-Agent: Apache-HttpClient\/4.5.14 (Java\/11.0.18)\n1 > Accept-Encoding: gzip,deflate\n\n\n14:10:55.158 response time in milliseconds: 116\n1 < 200\n1 < Date: Thu, 22 Jun 2023 06:10:55 GMT\n1 < Content-Type: application\/json; charset=utf-8\n1 < Transfer-Encoding: chunked\n1 < Connection: keep-alive\n1 < X-Powered-By: Express\n1 < Access-Control-Allow-Origin: *\n1 < Etag: W\/\"3e4-2RLXvr5wTg9YQ6aH95CkYoFNuO8\"\n1 < Via: 1.1 vegur\n1 < Cache-Control: max-age=14400\n1 < CF-Cache-Status: HIT\n1 < Age: 6918\n1 < Report-To: {\"endpoints\":[{\"url\":\"https:\\\/\\\/a.nel.cloudflare.com\\\/report\\\/v3?s=HzfRvam2iDRze1EZ%2FU1YcvuhHSjR77wXv3%2FWs0PqtEoE1c5sIjSpyjMNjAe9LwL15Srz0jMHACJXgLYa77C0%2FjgQO6tRNbRBm3cfLv9KqJ9xSfLRaZAtqHEjgA%3D%3D\"}],\"group\":\"cf-nel\",\"max_age\":604800}\n1 < NEL: {\"success_fraction\":0,\"report_to\":\"cf-nel\",\"max_age\":604800}\n1 < Vary: Accept-Encoding\n1 < Server: cloudflare\n1 < CF-RAY: 7db254b6db40491e-SIN\n{\"page\":1,\"per_page\":6,\"total\":12,\"total_pages\":2,\"data\":[{\"id\":1,\"email\":\"george.bluth@reqres.in\",\"first_name\":\"George\",\"last_name\":\"Bluth\",\"avatar\":\"https:\/\/reqres.in\/img\/faces\/1-image.jpg\"},{\"id\":2,\"email\":\"janet.weaver@reqres.in\",\"first_name\":\"Janet\",\"last_name\":\"Weaver\",\"avatar\":\"https:\/\/reqres.in\/img\/faces\/2-image.jpg\"},{\"id\":3,\"email\":\"emma.wong@reqres.in\",\"first_name\":\"Emma\",\"last_name\":\"Wong\",\"avatar\":\"https:\/\/reqres.in\/img\/faces\/3-image.jpg\"},{\"id\":4,\"email\":\"eve.holt@reqres.in\",\"first_name\":\"Eve\",\"last_name\":\"Holt\",\"avatar\":\"https:\/\/reqres.in\/img\/faces\/4-image.jpg\"},{\"id\":5,\"email\":\"charles.morris@reqres.in\",\"first_name\":\"Charles\",\"last_name\":\"Morris\",\"avatar\":\"https:\/\/reqres.in\/img\/faces\/5-image.jpg\"},{\"id\":6,\"email\":\"tracey.ramos@reqres.in\",\"first_name\":\"Tracey\",\"last_name\":\"Ramos\",\"avatar\":\"https:\/\/reqres.in\/img\/faces\/6-image.jpg\"}],\"support\":{\"url\":\"https:\/\/reqres.in\/#support-heading\",\"text\":\"To keep ReqRes free, contributions towards server costs are appreciated!\"}}\n\n"},{"result":{"nanos":624208,"millis":0.624208,"status":"passed"},"step":{"line":14,"prefix":"Then","index":2,"text":"match response.support.text == \"To keep ReqRes free, contributions towards server costs are appreciated!\""}}],"line":11,"description":"","durationMillis":119.345915,"failed":false,"tags":["parallel=false","GETListOfUsers"],"executorName":"main","name":"Get the list of users","startTime":1687414255040,"refId":"[1:11]","endTime":1687414255159,"exampleIndex":-1}],"callDepth":1,"name":"Articles","description":"","resultDate":"2023-06-22 02:10:55 PM","durationMillis":119.345915,"passedCount":1}]},{"result":{"nanos":209666,"millis":0.209666,"status":"passed"},"step":{"line":11,"prefix":"Then","index":1,"text":"match response.support.text == \"To keep ReqRes free, contributions towards server costs are appreciated!\""}}],"line":9,"description":"","durationMillis":123.699582,"failed":false,"tags":["validateTheText","parallel=false"],"executorName":"main","name":"Get the list of users","startTime":1687414255035,"refId":"[1:9]","endTime":1687414255160,"exampleIndex":-1}],"callDepth":0,"name":"Assert the users","description":"","resultDate":"2023-06-22 02:10:55 PM","durationMillis":123.699582,"passedCount":1}