{"failedCount":0,"prefixedPath":"classpath:conduitApp\/feature\/assertListOfUsers.feature","packageQualifiedName":"conduitApp.feature.assertListOfUsers","loopIndex":-1,"relativePath":"conduitApp\/feature\/assertListOfUsers.feature","scenarioResults":[{"sectionIndex":0,"stepResults":[{"result":{"nanos":952750,"millis":0.95275,"status":"passed"},"step":{"background":true,"line":5,"prefix":"*","index":0,"text":"def userList = 'this:Articles.feature@GETListOfUsers'"}},{"result":{"nanos":536741541,"millis":536.741541,"status":"passed"},"step":{"line":10,"prefix":"When","index":0,"text":"call read(userList)"},"callResults":[{"failedCount":0,"prefixedPath":"classpath:conduitApp\/feature\/Articles.feature","packageQualifiedName":"conduitApp.feature.Articles","loopIndex":-1,"relativePath":"conduitApp\/feature\/Articles.feature","scenarioResults":[{"sectionIndex":0,"stepResults":[{"result":{"nanos":489042,"millis":0.489042,"status":"passed"},"step":{"background":true,"line":5,"prefix":"*","index":0,"text":"url apiUrl"}},{"result":{"nanos":843625,"millis":0.843625,"status":"passed"},"step":{"background":true,"line":6,"prefix":"*","index":1,"text":"def userList = 'this:\/Articles.feature@GETListOfUsers'"}},{"result":{"nanos":263041,"millis":0.263041,"status":"passed"},"step":{"line":11,"prefix":"Given","index":0,"text":"path '\/api\/users'"}},{"result":{"nanos":518015584,"millis":518.015584,"status":"passed"},"step":{"line":12,"prefix":"When","index":1,"text":"method GET"},"stepLog":"15:45:01.223 request:\n1 > GET https:\/\/reqres.in\/api\/users\n1 > Host: reqres.in\n1 > Connection: Keep-Alive\n1 > User-Agent: Apache-HttpClient\/4.5.14 (Java\/11.0.18)\n1 > Accept-Encoding: gzip,deflate\n\n\n15:45:01.603 response time in milliseconds: 376\n1 < 200\n1 < Date: Thu, 22 Jun 2023 07:45:01 GMT\n1 < Content-Type: application\/json; charset=utf-8\n1 < Transfer-Encoding: chunked\n1 < Connection: keep-alive\n1 < X-Powered-By: Express\n1 < Access-Control-Allow-Origin: *\n1 < Etag: W\/\"3e4-2RLXvr5wTg9YQ6aH95CkYoFNuO8\"\n1 < Via: 1.1 vegur\n1 < Cache-Control: max-age=14400\n1 < CF-Cache-Status: HIT\n1 < Age: 5192\n1 < Report-To: {\"endpoints\":[{\"url\":\"https:\\\/\\\/a.nel.cloudflare.com\\\/report\\\/v3?s=Ee54bhs03EalauL2zr9bSmYV6lJlhYYniu%2FoFLb8rjvYPSgP%2F7OSfCJl5gTEyv3jNywJZiDbvzHEHwY1C0rz%2BCCQZs78X%2B%2Flt1y0hTfq5Bq%2FVbKAWw7vTRWVLA%3D%3D\"}],\"group\":\"cf-nel\",\"max_age\":604800}\n1 < NEL: {\"success_fraction\":0,\"report_to\":\"cf-nel\",\"max_age\":604800}\n1 < Vary: Accept-Encoding\n1 < Server: cloudflare\n1 < CF-RAY: 7db2de9138eb4625-SIN\n{\"page\":1,\"per_page\":6,\"total\":12,\"total_pages\":2,\"data\":[{\"id\":1,\"email\":\"george.bluth@reqres.in\",\"first_name\":\"George\",\"last_name\":\"Bluth\",\"avatar\":\"https:\/\/reqres.in\/img\/faces\/1-image.jpg\"},{\"id\":2,\"email\":\"janet.weaver@reqres.in\",\"first_name\":\"Janet\",\"last_name\":\"Weaver\",\"avatar\":\"https:\/\/reqres.in\/img\/faces\/2-image.jpg\"},{\"id\":3,\"email\":\"emma.wong@reqres.in\",\"first_name\":\"Emma\",\"last_name\":\"Wong\",\"avatar\":\"https:\/\/reqres.in\/img\/faces\/3-image.jpg\"},{\"id\":4,\"email\":\"eve.holt@reqres.in\",\"first_name\":\"Eve\",\"last_name\":\"Holt\",\"avatar\":\"https:\/\/reqres.in\/img\/faces\/4-image.jpg\"},{\"id\":5,\"email\":\"charles.morris@reqres.in\",\"first_name\":\"Charles\",\"last_name\":\"Morris\",\"avatar\":\"https:\/\/reqres.in\/img\/faces\/5-image.jpg\"},{\"id\":6,\"email\":\"tracey.ramos@reqres.in\",\"first_name\":\"Tracey\",\"last_name\":\"Ramos\",\"avatar\":\"https:\/\/reqres.in\/img\/faces\/6-image.jpg\"}],\"support\":{\"url\":\"https:\/\/reqres.in\/#support-heading\",\"text\":\"To keep ReqRes free, contributions towards server costs are appreciated!\"}}\n\n"}],"line":10,"description":"","durationMillis":519.611292,"failed":false,"tags":["ignore","parallel=false","GETListOfUsers"],"executorName":"main","name":"Get the list of users","startTime":1687419901086,"refId":"[1:10]","endTime":1687419901606,"exampleIndex":-1}],"callDepth":1,"name":"Articles","description":"","resultDate":"2023-06-22 03:45:01 PM","durationMillis":519.611292,"passedCount":1}]},{"result":{"nanos":20328834,"millis":20.328834,"status":"passed"},"step":{"line":11,"prefix":"Then","index":1,"text":"match response.support.text == \"To keep ReqRes free, contributions towards server costs are appreciated!\""}}],"line":9,"description":"","durationMillis":558.023125,"failed":false,"tags":["validateTheText","parallel=false"],"executorName":"main","name":"Get the list of users","startTime":1687419901040,"refId":"[1:9]","endTime":1687419901628,"exampleIndex":-1}],"callDepth":0,"name":"Assert the users","description":"","resultDate":"2023-06-22 03:45:01 PM","durationMillis":558.023125,"passedCount":1}