[{"line":2,"elements":[{"line":4,"name":"","description":"","type":"background","keyword":"Background","steps":[{"name":"def userList = 'this:Articles.feature@GETListOfUsers'","result":{"duration":952750,"status":"passed"},"match":{"location":"karate","arguments":[]},"keyword":"*","line":5}]},{"start_timestamp":"2023-06-22T07:45:01.040Z","line":9,"name":"Get the list of users","description":"","id":"get-the-list-of-users","type":"scenario","keyword":"Scenario","steps":[{"name":"call read(userList)","result":{"duration":536741541,"status":"passed"},"match":{"location":"karate","arguments":[]},"keyword":"When","line":10},{"name":"conduitApp\/feature\/Articles.feature","result":{"duration":0,"status":"passed"},"match":{"location":"karate","arguments":[]},"keyword":"","line":10},{"name":"url apiUrl","result":{"duration":489042,"status":"passed"},"match":{"location":"karate","arguments":[]},"keyword":"> *","line":5},{"name":"def userList = 'this:\/Articles.feature@GETListOfUsers'","result":{"duration":843625,"status":"passed"},"match":{"location":"karate","arguments":[]},"keyword":"> *","line":6},{"name":"path '\/api\/users'","result":{"duration":263041,"status":"passed"},"match":{"location":"karate","arguments":[]},"keyword":"> Given","line":11},{"name":"method GET","result":{"duration":518015584,"status":"passed"},"match":{"location":"karate","arguments":[]},"keyword":"> When","line":12,"doc_string":{"content_type":"","value":"15:45:01.223 request:\n1 > GET https:\/\/reqres.in\/api\/users\n1 > Host: reqres.in\n1 > Connection: Keep-Alive\n1 > User-Agent: Apache-HttpClient\/4.5.14 (Java\/11.0.18)\n1 > Accept-Encoding: gzip,deflate\n\n\n15:45:01.603 response time in milliseconds: 376\n1 < 200\n1 < Date: Thu, 22 Jun 2023 07:45:01 GMT\n1 < Content-Type: application\/json; charset=utf-8\n1 < Transfer-Encoding: chunked\n1 < Connection: keep-alive\n1 < X-Powered-By: Express\n1 < Access-Control-Allow-Origin: *\n1 < Etag: W\/\"3e4-2RLXvr5wTg9YQ6aH95CkYoFNuO8\"\n1 < Via: 1.1 vegur\n1 < Cache-Control: max-age=14400\n1 < CF-Cache-Status: HIT\n1 < Age: 5192\n1 < Report-To: {\"endpoints\":[{\"url\":\"https:\\\/\\\/a.nel.cloudflare.com\\\/report\\\/v3?s=Ee54bhs03EalauL2zr9bSmYV6lJlhYYniu%2FoFLb8rjvYPSgP%2F7OSfCJl5gTEyv3jNywJZiDbvzHEHwY1C0rz%2BCCQZs78X%2B%2Flt1y0hTfq5Bq%2FVbKAWw7vTRWVLA%3D%3D\"}],\"group\":\"cf-nel\",\"max_age\":604800}\n1 < NEL: {\"success_fraction\":0,\"report_to\":\"cf-nel\",\"max_age\":604800}\n1 < Vary: Accept-Encoding\n1 < Server: cloudflare\n1 < CF-RAY: 7db2de9138eb4625-SIN\n{\"page\":1,\"per_page\":6,\"total\":12,\"total_pages\":2,\"data\":[{\"id\":1,\"email\":\"george.bluth@reqres.in\",\"first_name\":\"George\",\"last_name\":\"Bluth\",\"avatar\":\"https:\/\/reqres.in\/img\/faces\/1-image.jpg\"},{\"id\":2,\"email\":\"janet.weaver@reqres.in\",\"first_name\":\"Janet\",\"last_name\":\"Weaver\",\"avatar\":\"https:\/\/reqres.in\/img\/faces\/2-image.jpg\"},{\"id\":3,\"email\":\"emma.wong@reqres.in\",\"first_name\":\"Emma\",\"last_name\":\"Wong\",\"avatar\":\"https:\/\/reqres.in\/img\/faces\/3-image.jpg\"},{\"id\":4,\"email\":\"eve.holt@reqres.in\",\"first_name\":\"Eve\",\"last_name\":\"Holt\",\"avatar\":\"https:\/\/reqres.in\/img\/faces\/4-image.jpg\"},{\"id\":5,\"email\":\"charles.morris@reqres.in\",\"first_name\":\"Charles\",\"last_name\":\"Morris\",\"avatar\":\"https:\/\/reqres.in\/img\/faces\/5-image.jpg\"},{\"id\":6,\"email\":\"tracey.ramos@reqres.in\",\"first_name\":\"Tracey\",\"last_name\":\"Ramos\",\"avatar\":\"https:\/\/reqres.in\/img\/faces\/6-image.jpg\"}],\"support\":{\"url\":\"https:\/\/reqres.in\/#support-heading\",\"text\":\"To keep ReqRes free, contributions towards server costs are appreciated!\"}}\n\n","line":12}},{"name":"match response.support.text == \"To keep ReqRes free, contributions towards server costs are appreciated!\"","result":{"duration":20328834,"status":"passed"},"match":{"location":"karate","arguments":[]},"keyword":"Then","line":11}],"tags":[{"name":"@validateTheText","line":8},{"name":"@parallel=false","line":1}]}],"name":"conduitApp\/feature\/assertListOfUsers.feature","description":"Assert the users","id":"assert-the-users","keyword":"Feature","uri":"conduitApp\/feature\/assertListOfUsers.feature","tags":[{"name":"@parallel=false","line":1}]}]